LAB4/xrun.log
xrun(64): 23.09-s006: (c) Copyright 1995-2024 Cadence Design Systems, Inc.
TOOL:	xrun(64)	23.09-s006: Started on Sep 04, 2024 at 14:50:49 EDT
xrun
	-define nobugs
	-rnm_package
	-nowarn COVFHT
	-nowarn COVCGN
	-nowarn COVUTA
	-nowarn ICFCLD
	-nowarn WSEM2009
	-input /home/norc2802/Bureau/S8/5_LAB3_2/S8APP1LABCADENCE/verif/scripts/misc_commands.tcl
	-run
	-exit
	-seed random
	-sv
	counter.v
	test_counter.sv
	counter_property.sv
file: counter.v
	module worklib.counter:v
		errors: 0, warnings: 0
file: counter_property.sv
	module worklib.counter_property:sv
		errors: 0, warnings: 0
		Caching library 'worklib' ....... Done
	Elaborating the design hierarchy:
	Top level design units:
		test_counter
		Caching library 'worklib' ....... Done
	Building instance overlay tables: .................... Done
	Generating native compiled code:
		worklib.counter:v <0x3b615ce5>
			streams:   2, words:  1202
	Building instance specific data structures.
	Loading native compiled code:     .................... Done
	Design hierarchy summary:
		              Instances  Unique
		Modules:              3       3
		Registers:           12      12
		Scalar wires:         5       -
		Vectored wires:       3       -
		Always blocks:        3       3
		Initial blocks:       1       1
		Pseudo assignments:   6       -
		Process Clocks:       1       1
	Writing initial simulation snapshot: worklib.test_counter:sv
Loading snapshot worklib.test_counter:sv .................... Done
SVSEED set randomly from command line: 466083423
xcelium> source /mnt/opt/cmc/tools/cadence/XCELIUMMAIN23.09.006_lnx86/tools/xcelium/files/xmsimrc
xcelium> ########################################################################
xcelium> ## Author  :    Marc-Andre Tetrault
xcelium> ## Project :    Verification Primer
xcelium> ##
xcelium> ## Universite de Sherbrooke
xcelium> ########################################################################
xcelium> #
xcelium> # Purpose   :   Misc Commands sent to simulator
xcelium> ########################################################################
xcelium> 
xcelium> 
xcelium> # get the seed. Reference: "SystemVerilog Reference" from Cadence Help tool (cdnshelp)
xcelium> set RetrievedSeed [set svseed]
466083423
xcelium> puts "The SystemVerilog seed is $RetrievedSeed"
The SystemVerilog seed is 466083423
xcelium> 
xcelium> # set severity_pack_assert_off {warning}
xcelium> # set pack_assert_off {  numeric_std }
xcelium> 
xcelium> # set assert_stop_level never
xcelium> run
         5  rst_=1 clk=1 count_enb=0 ld_cnt_=1 updn_cnt=1 DIN=x DOUT=x
        15  rst_=0 clk=1 count_enb=0 ld_cnt_=1 updn_cnt=1 DIN=x DOUT=0
        25  rst_=0 clk=1 count_enb=0 ld_cnt_=1 updn_cnt=1 DIN=x DOUT=0
        35  rst_=1 clk=1 count_enb=0 ld_cnt_=1 updn_cnt=1 DIN=x DOUT=0
        45  rst_=1 clk=1 count_enb=0 ld_cnt_=0 updn_cnt=1 DIN=0 DOUT=0
        55  rst_=1 clk=1 count_enb=0 ld_cnt_=0 updn_cnt=1 DIN=0 DOUT=0
        65  rst_=1 clk=1 count_enb=0 ld_cnt_=0 updn_cnt=1 DIN=100 DOUT=0
        75  rst_=1 clk=1 count_enb=1 ld_cnt_=1 updn_cnt=1 DIN=100 DOUT=100
        85  rst_=1 clk=1 count_enb=1 ld_cnt_=1 updn_cnt=1 DIN=100 DOUT=101
        95  rst_=1 clk=1 count_enb=1 ld_cnt_=1 updn_cnt=1 DIN=100 DOUT=102
       105  rst_=1 clk=1 count_enb=1 ld_cnt_=1 updn_cnt=1 DIN=100 DOUT=103
       115  rst_=1 clk=1 count_enb=1 ld_cnt_=1 updn_cnt=1 DIN=100 DOUT=104
       125  rst_=1 clk=1 count_enb=1 ld_cnt_=1 updn_cnt=1 DIN=100 DOUT=105
       135  rst_=1 clk=1 count_enb=1 ld_cnt_=1 updn_cnt=1 DIN=100 DOUT=106
       145  rst_=1 clk=1 count_enb=1 ld_cnt_=1 updn_cnt=1 DIN=100 DOUT=107
       155  rst_=1 clk=1 count_enb=1 ld_cnt_=1 updn_cnt=1 DIN=100 DOUT=108
       165  rst_=1 clk=1 count_enb=1 ld_cnt_=1 updn_cnt=1 DIN=100 DOUT=109
       175  rst_=1 clk=1 count_enb=0 ld_cnt_=1 updn_cnt=1 DIN=100 DOUT=110
       185  rst_=1 clk=1 count_enb=0 ld_cnt_=1 updn_cnt=1 DIN=100 DOUT=110
       195  rst_=1 clk=1 count_enb=0 ld_cnt_=0 updn_cnt=1 DIN=100 DOUT=110
       205  rst_=1 clk=1 count_enb=1 ld_cnt_=1 updn_cnt=0 DIN=100 DOUT=100
       215  rst_=1 clk=1 count_enb=1 ld_cnt_=1 updn_cnt=0 DIN=100 DOUT=99
       225  rst_=1 clk=1 count_enb=1 ld_cnt_=1 updn_cnt=0 DIN=100 DOUT=98
       235  rst_=1 clk=1 count_enb=1 ld_cnt_=1 updn_cnt=0 DIN=100 DOUT=97
       245  rst_=1 clk=1 count_enb=1 ld_cnt_=1 updn_cnt=0 DIN=100 DOUT=96
       255  rst_=1 clk=1 count_enb=1 ld_cnt_=1 updn_cnt=0 DIN=100 DOUT=95
       265  rst_=1 clk=1 count_enb=1 ld_cnt_=1 updn_cnt=0 DIN=100 DOUT=94
       275  rst_=1 clk=1 count_enb=1 ld_cnt_=1 updn_cnt=0 DIN=100 DOUT=93
       285  rst_=1 clk=1 count_enb=1 ld_cnt_=1 updn_cnt=0 DIN=100 DOUT=92
       295  rst_=1 clk=1 count_enb=1 ld_cnt_=1 updn_cnt=0 DIN=100 DOUT=91
       305  rst_=1 clk=1 count_enb=0 ld_cnt_=1 updn_cnt=0 DIN=100 DOUT=90
       315  rst_=1 clk=1 count_enb=0 ld_cnt_=1 updn_cnt=0 DIN=100 DOUT=90
       325  rst_=1 clk=1 count_enb=0 ld_cnt_=1 updn_cnt=0 DIN=100 DOUT=90
Memory Usage - Current physical: 55.3M, Current virtual: 344.4M
CPU Usage - 0.0s system + 0.0s user = 0.1s total (0.5% cpu)
Simulation complete via $finish(2) at time 325 NS + 0
./test_counter.sv:29   @(posedge clk); $finish(2);
xcelium> exit
TOOL:	xrun(64)	23.09-s006: Exiting on Sep 04, 2024 at 14:50:59 EDT  (total: 00:00:10)
